…
In the near future, pxR2 will be on CRAN.

``` r
devtools::install_github('emilwest/pxR2')
```

# Examples

## Create px file from dataframe/tibble

``` r
library(pxR2)
ex_data
#> # A tibble: 27 × 5
#>    sex    age   time  value pxvalue
#>    <chr>  <chr> <chr> <dbl> <chr>  
#>  1 Female 0-15  2021   16.9 <NA>   
#>  2 Female 0-15  2022   20.9 .....  
#>  3 Female 0-15  2023   15.8 ....   
#>  4 Female 16-25 2021   28.0 <NA>   
#>  5 Female 16-25 2022   21.6 .....  
#>  6 Female 16-25 2023   15.9 .      
#>  7 Female 26-50 2021   22.4 <NA>   
#>  8 Female 26-50 2022   23.7 ....   
#>  9 Female 26-50 2023   22.9 ....   
#> 10 Male   0-15  2021   18.5 <NA>   
#> # ℹ 17 more rows
…
#>  9 SUBJECT-CODE  <NA>     <NA>    <NA>    "F"                                   
#> 10 SUBJECT-AREA  <NA>     <NA>    <NA>    "Forestry"                            
#> 11 TITLE         en       <NA>    <NA>    "Number of trees by sex, age and time…
#> 12 CONTENTS      <NA>     <NA>    <NA>    "Number of trees"                     
#> 13 UNITS         <NA>     <NA>    <NA>    "Number"                              
#> 14 STUB          <NA>     <NA>    <NA>    "sex,age"                             
#> 15 HEADING       <NA>     <NA>    <NA>    "time"                                
#> 16 VALUES        <NA>     sex     <NA>    "\"Female\",\"Male\",\"Total\""       
#> 17 VALUES        <NA>     age     <NA>    "\"0-15\",\"16-25\",\"26-50\""        
#> 18 VALUES        <NA>     time    <NA>    "\"2021\",\"2022\",\"2023\""          
#> 19 TIMEVAL       <NA>     time    A1      "2021,2022,2023"                      
#> 20 LAST-UPDATED  <NA>     <NA>    <NA>    "20231018 17:03"                      
#> 
#> $data
#> # A tibble: 27 × 5
#>    sex    age   time  value pxvalue
#>    <chr>  <chr> <chr> <dbl> <chr>  
#>  1 Female 0-15  2021   16.9 <NA>   
#>  2 Female 0-15  2022   20.9 .....  
#>  3 Female 0-15  2023   15.8 ....   
#>  4 Female 16-25 2021   28.0 <NA>   
#>  5 Female 16-25 2022   21.6 .....  
#>  6 Female 16-25 2023   15.9 .      
#>  7 Female 26-50 2021   22.4 <NA>   
#>  8 Female 26-50 2022   23.7 ....   
#>  9 Female 26-50 2023   22.9 ....   
#> 10 Male   0-15  2021   18.5 <NA>   
#> # ℹ 17 more rows
…
